{
  "id": "QuickSword",
  "name": "Epée équilibrée",
  "moneyCost": 1500,
  "cellCost": 0,
  "droppable": false,
  "castCD": 0,
  "tags": [
    {
      "tag": "NoCritical"
    }
  ],
  "props": {},
  "group": 4,
  "icon": {
    "file": "cardIcons.png",
    "size": 24,
    "x": 4,
    "y": 6
  },
  "gameplayDesc": "Soigneusement équilibrée pour enchainer des attaques rapides.",
  "tier1": "Brutality",
  "hasLevels": true,
  "legendAffix": "PoisonOnHit",
  "legendaryName": "Toxine",
  "__separator_group_ID": 4,
  "__separator_group_Name": "Melee",
  "__original_Index": 44
}