{
  "id": "KingsSpear",
  "name": "Lance symétrique",
  "moneyCost": 2000,
  "cellCost": 150,
  "droppable": false,
  "hasLevels": true,
  "castCD": 0,
  "tags": [
    {
      "tag": "CinematicBlueprint"
    },
    {
      "tag": "NeedUnlockToDropAsLegendary"
    }
  ],
  "props": {
    "count": 2,
    "duration": 6,
    "duration2": 1.5
  },
  "group": 4,
  "icon": {
    "file": "cardIcons.png",
    "size": 24,
    "x": 11,
    "y": 11
  },
  "tier1": "Brutality",
  "tier2": "Survival",
  "gameplayDesc": "Inflige des {coups critiques@CC} pendant ::duration:: sec si vous tuez rapidement ::count:: ennemis avec cette arme.",
  "legendAffix": "FullLifeDamage",
  "legendaryName": "Justice",
  "__separator_group_ID": 4,
  "__separator_group_Name": "Melee",
  "__original_Index": 57
}