{
  "id": "StunMace",
  "name": "Casse noisettes",
  "moneyCost": 1750,
  "cellCost": 0,
  "droppable": false,
  "castCD": 0,
  "tags": [
    {
      "tag": "NoCritical"
    },
    {
      "tag": "Stun"
    }
  ],
  "props": {
    "prct": 0.75,
    "duration": 1.1
  },
  "group": 4,
  "icon": {
    "file": "cardIcons.png",
    "size": 24,
    "x": 3,
    "y": 6
  },
  "gameplayDesc": "Etourdit les cibles qui ont plus de ::prct::% de vie. ",
  "tier1": "Brutality",
  "hasLevels": true,
  "tier2": "Survival",
  "legendAffix": "StunDamage",
  "legendaryName": "Broyeuse",
  "__separator_group_ID": 4,
  "__separator_group_Name": "Melee",
  "__original_Index": 60
}